{
    "label": "Vehículos",
    "reference": [],
    "entries": {
        "Strider": {
            "name": "Strider",
            "description": "",
            "crew": "1 piloto",
            "pilotingcheck": "Arcanos (DC 25), Elaborar (DC 25), Saber de ingeniería (DC 23) o Saber de pilotaje (DC 23).",
            "speed": "30 pies (alquímico, mágico)"
        },
        "Clockwork Borer": {
            "name": "Clockwork Borer",
            "description": "<p>Un taladro de relojería es esencialmente un enorme taladro de adamantina unido a un gran carro con ruedas. Los engranajes de relojería en su interior mueven la perforadora y hacen girar el taladro, lo que le permite excavar a través de material suelto rápidamente e incluso a través de piedra sólida a un ritmo más lento.</p> <p>",
            "crew": "1 piloto",
            "pilotingcheck": "Conducir Lore (DC 26) o Elaborar Artesanía (DC 28).",
            "speed": "20 pies, madriguera 10 pies (relojería)"
        },
        "Steam Giant": {
            "name": "Gigante de vapor",
            "description": "",
            "crew": "1 piloto, 3 tripulantes",
            "pilotingcheck": "Conducir Lore (DC 32) o Elaborar Artesanía (DC 34).",
            "speed": "20 pies (alquimia)"
        },
        "Armored Carriage": {
            "name": "Carro blindado",
            "description": "<p>Lento pero firme, un carruaje blindado combina el mecanismo de relojería con un casco protector para ofrecer un viaje seguro y cómodo.</p> <p>El carruaje blindado es el vehículo más seguro del mundo.",
            "crew": "1 piloto",
            "pilotingcheck": "Conducir Lore (DC 20) o Elaborar Artesanía (DC 22).",
            "speed": "25 pies (relojería)"
        },
        "Bathysphere": {
            "name": "Batisfera",
            "description": "",
            "crew": "1 piloto",
            "pilotingcheck": "Elaboraría (DC 22), Saber de ingeniería (DC 20) o Saber de pilotaje (DC 20).",
            "speed": "Nadar 20 pies (alquímico, sólo bajo el agua)"
        },
        "Bone Ship": {
            "name": "Barco de hueso",
            "description": "<p>Rara vez queda algo vivo tras el paso de una nave de hueso: sólo muerte, destrucción y olas rojas como la sangre que chocan y espuman a su paso. Cuando se forma un barco de hueso, la magia nigromántica extrae grandes huesos del lecho marino y los dobla lentamente en su lugar con malas intenciones. Las costillas de las ballenas suelen formar las vigas del casco, y sus grandes columnas vertebrales se retuercen hasta convertirse en altísimos mástiles. Músculos y tendones atan el barco entre sí, tensándolo y aflojándolo para que gire con precisión mientras navega.</p> <p>La mayoría de los barcos de hueso están construidos con huesos.\n<p>Cuando un barco de hueso se topa con otro navío o encuentra alguna otra oportunidad de sembrar la muerte, los cadáveres más pequeños esparcidos por el barco se animan para formar una tripulación y un grupo de abordaje. Cada miembro de la tripulación se asemeja a un esqueleto humanoide, pero pueden estar hechos de huesos de múltiples criaturas. Para la batalla, la nave también elabora cañones mágicos formados de hueso que propulsan fragmentos de hueso y escombros con ráfagas de magia. Las pequeñas gemas negras salpicadas por la estructura del barco contienen las almas de una tripulación ahogada, ya que un barco de hueso es el legado maldito de los marinos muertos.</p> <p>\n<p>Cuando se produce una muerte masiva en el mar -a menudo por el hundimiento de un barco entero lejos de la costa- la angustia de las víctimas moribundas puede engendrar un barco de huesos. Este suceso puede ocurrir cuando un marino hace una última súplica a un dios oscuro o cuando una deidad aprovecha la oportunidad para unir las almas de muchos marinos muertos como muestra destructiva del poder divino. Cuando no se crea por intervención divina, un barco de huesos puede crecer lenta y orgánicamente a partir de uno de los barcos pilotados por los marinos muertos vivientes conocidos como @UUID[Compendium.pf2e.pathfinder-bestiary-2.48agy7vl9fQW1LLA]{Draugr}. A medida que los barcos draugr surcan los mares y hunden otros barcos, pueden recoger más almas y huesos, convirtiéndose finalmente en barcos de hueso. Estos navíos tienen un aspecto diferente al de muchos otros barcos de hueso, con parches o apariencia asimétrica.</p> <p>\n<p>Un barco de huesos es casi glotón, posee un apetito incesante de muerte, destrucción y nuevas almas que añadir a su número. Estos deseos provienen de una causa subyacente, bien colocada dentro de la nave por su creador, bien acumulada a partir de los deseos finales dispersos de las almas muertas que la componen. Por ejemplo, una deidad puede enviar una nave de hueso en una misión especial para llevar un mensaje o deshacerse de un adversario o molestia especialmente persistente. Aunque las naves de hueso suelen desplazarse sobre las olas, no necesitan respirar y pueden llevar a cabo misiones submarinas a instancias de su creador.</p> <p>Las naves de hueso tienen una larga tradición en el mundo de la navegación.\n<p>Los barcos de hueso tienen una reputación legendaria entre los marinos. Estos muertos vivientes pueden aparecer de la nada para sembrar la destrucción, y si los cuerpos de la tripulación están ausentes en un naufragio, la calamidad puede ser achacada a un barco de hueso. El mar puede traer la muerte repentina de muchas maneras, pero la esclavitud eterna del alma presenta un destino más aterrador que la muerte por sí sola.</p> <p>",
            "crew": "1 piloto, 12 tripulantes",
            "pilotingcheck": "Saber de navegación (DC 40), Religión (DC 38); la propulsión del barco es eólica si se usa Saber de navegación, o mágica si se usa Religión.",
            "speed": "Nadar 40 pies"
        },
        "Vonthos's Golden Bridge": {
            "name": "Puente de Oro de Vonthos",
            "description": "<p>Elaborado por el mago Vonthos como parte de su intento de hacer la Prueba de la Piedra Estelar en Absalom, este extraño vehículo se considera una maravilla mágica y tecnológica. El Puente de Oro de Vonthos es una esfera voladora hecha de un trono rodeado de varios anillos de relojería cubiertos de oro y gemas infundidos con poderosas abjuración adaptativas que le otorgan habilidades únicas.</p> <p>El Puente de Oro de Vonthos es una esfera voladora hecha de un trono rodeado de varios anillos de relojería cubiertos de oro y gemas infundidos con poderosas abjuración adaptativas que le otorgan habilidades únicas.",
            "crew": "1 piloto",
            "pilotingcheck": "Conducir Lore (DC 36) o Arcanos (DC 38)",
            "speed": "Volar 40 pies (reloj, mágico)"
        },
        "Sailing Ship": {
            "name": "Velero",
            "description": "",
            "crew": "1 piloto, 8 tripulantes",
            "pilotingcheck": "Saber (navegar) (DC 26), Diplomacia (DC 28) o Intimidación (DC 28).",
            "speed": "Nadar 40 pies (viento)"
        },
        "Glider": {
            "name": "Planeador",
            "description": "",
            "crew": "1 piloto",
            "pilotingcheck": "Pilotar Lore (DC 14) o Naturaleza (DC 16)",
            "speed": "volar 25 pies (viento)"
        },
        "Clockwork Hopper": {
            "name": "Tolva Mecánica",
            "description": "<p>Una tolva mecánica tiene una forma similar a la de un conejo de gran tamaño y da zancadas que evitan los obstáculos del terreno.",
            "crew": "1 piloto",
            "pilotingcheck": "Conducir Lore (DC 22) o Elaborar Artesanía (DC 24).",
            "speed": "Velocidad 35 pies (relojería)"
        },
        "Sleigh": {
            "name": "Trineo",
            "description": "",
            "crew": "1 piloto",
            "pilotingcheck": "Conducir Lore (DC 15) o Naturaleza (DC 17 a DC 25, dependiendo de la criatura que tira)",
            "speed": "La Velocidad de la criatura tiradora más lenta (tirada por 2 criaturas Grandes o 6 criaturas Medianas)"
        },
        "Clockwork Bumblebee": {
            "name": "Abejorro Mecánico",
            "description": "<p>Este caprichoso vehículo transporta un pequeño número de pasajeros y tripulación. Es capaz de realizar vuelos cortos, pero el peso de los mecanismos de relojería impide su uso continuado. El piloto, la tripulación y el pasajero viajan en la parte trasera, a horcajadas sobre sillas de montar integradas en el casco.",
            "crew": "1 piloto, 2 tripulantes",
            "pilotingcheck": "Artesanía (DC 28) o Conocimiento de la conducción (DC 26).",
            "speed": "Volar 30 pies (relojería)"
        },
        "Airship": {
            "name": "Dirigible",
            "description": "",
            "crew": "1 piloto, otros 5 tripulantes",
            "pilotingcheck": "Arcanos (DC 32), Artesanía (DC 32), Naturaleza (DC 32) o Conocimientos de pilotaje (DC 30).",
            "speed": "Volar 50 pies (alquímico, mágico)"
        },
        "Sky Chariot, Light": {
            "name": "Carro Celeste, Luz",
            "description": "",
            "crew": "1 piloto",
            "pilotingcheck": "Arcanos (DC 25), Naturaleza (DC 25 a 33, dependiendo de la criatura que tira), o Saber de Pilotaje (DC 23)",
            "speed": "la Velocidad de volar de la criatura tiradora más lenta (tirada por 2 criaturas Grandes o 1 criatura Enorme)"
        },
        "Hillcross Glider": {
            "name": "Planeador Hillcross",
            "description": "<p>Los planeadores Hillcross están hechos de hueso y cuero estirado, atados con</p>\n<p>sinew, y sellados con un pegamento hecho de grasa animal.</p>",
            "crew": "1 piloto",
            "pilotingcheck": "Pilotar Lore (DC 19) o Naturaleza (DC 21)",
            "speed": "Volar 35 pies (viento)"
        },
        "Carriage": {
            "name": "Carruaje",
            "description": "",
            "crew": "1 piloto",
            "pilotingcheck": "Conducir Lore (DC 16) o Naturaleza (DC 18 a DC 26, dependiendo de la criatura que tira)",
            "speed": "La Velocidad de la criatura tiradora más lenta (tirada por 2 criaturas Grandes)"
        },
        "Sand Diver": {
            "name": "Buzo de Arena",
            "description": "<p>Un buzo de arena es un vehículo con forma vagamente de escorpión que utiliza reacciones alquímicas para propulsarse. La estructura en forma de cola actúa como un disipador de calor y libera vapores alquímicos detrás del buzo mientras se hunde. En lugar de pinzas, tiene dos mecanismos de excavación en la parte delantera que le permiten excavar en la arena.</p> <p>",
            "crew": "1 piloto",
            "pilotingcheck": "Conducir Lore (DC 18) o Elaborar Artesanía (DC 20).",
            "speed": "20 pies, excavar 10 pies (alquimia)"
        },
        "Sand Barge": {
            "name": "Barcaza de Arena",
            "description": "",
            "crew": "1 piloto, 2 tripulantes",
            "pilotingcheck": "Diplomacia (DC 24), Intimidación (DC 24) o Conocimientos de navegación (DC 22).",
            "speed": "40 pies (remo, viento)"
        },
        "Cutter": {
            "name": "Cutter",
            "description": "",
            "crew": "1 piloto, 3 tripulantes",
            "pilotingcheck": "Naturaleza (DC 24) o Saber (navegar) (DC 22)",
            "speed": "Nadar 30 pies (Viento)"
        },
        "Sky Chariot, Medium": {
            "name": "Sky Chariot, Medium",
            "description": "",
            "crew": "1 piloto",
            "pilotingcheck": "Arcanos (DC 29), Naturaleza (DC 29 a 37, dependiendo de la criatura que tira), o Piloting Lore (DC 27)",
            "speed": "la Velocidad de volar de la criatura que tira más lenta (tirada por 4 criaturas Grandes, 2 criaturas Enormes o 1 criatura Gargantuesca)"
        },
        "Snail Coach": {
            "name": "Caracol Entrenador",
            "description": "<p>Con la forma de su homónimo animal, un caracol entrenador es un carro impulsado por una combinación de magia y adhesivos alquímicos, con un duro caparazón exterior para protegerse de los ataques. El rastro adhesivo le permite trepar y, al mismo tiempo, es un obstáculo para los enemigos que le persiguen.</p> <p>",
            "crew": "1 piloto",
            "pilotingcheck": "Conducir Lore (DC 23) o Elaborar Artesanía (DC 25).",
            "speed": "15 pies, Trepar 15 pies (alquímico, mágico)"
        },
        "Shark Diver": {
            "name": "Buzo Tiburón",
            "description": "",
            "crew": "1 piloto, 4 tripulantes",
            "pilotingcheck": "Elaboraría (DC 30) o Saber pilotar (DC 28).",
            "speed": "Nadar 40 pies (alquímico)"
        },
        "Clockwork Castle": {
            "name": "Castillo Mecánico",
            "description": "<p>Aunque el nombre exagera un poco su tamaño, el castillo mágico de relojería es una considerable fortaleza móvil construida sobre diez patas de araña, con tres pisos de alojamiento palaciego en su interior. Las leyendas hablan de un nico castillo de relojería mucho mayor que este, tal vez un artefacto por derecho propio.",
            "crew": "1 piloto, 2 tripulantes",
            "pilotingcheck": "Conducir Lore (DC 35), Arcanos (DC 39) o Elaborar (DC 37).",
            "speed": "40 pies (relojería, mágico)"
        },
        "Adaptable Paddleboat": {
            "name": "Paddleboat adaptable",
            "description": "<p>Este barco anfibio de relojería se mueve por el agua utilizando ruedas hidráulicas de relojería para mantener un ritmo lento y constante. Cuando es necesario, el barco utiliza un ingenioso mecanismo de relojería para reposicionar las ruedas hidráulicas y transformarlas en ruedas aptas para tierra.</p> <p>Este barco anfibio de relojería se mueve por el agua utilizando ruedas hidráulicas para mantener un ritmo lento y constante.",
            "crew": "1 piloto",
            "pilotingcheck": "Saber conducir (DC 16), Saber navegar (DC 16) o Artesanía (DC 18).",
            "speed": "Nadar 15 pies (mecanismo del reloj)"
        },
        "Galley": {
            "name": "Galera",
            "description": "",
            "crew": "1 piloto, 20 remeros",
            "pilotingcheck": "Saber (navegar) (DC 27), Diplomacia (DC 29), O Intimidación (DC 29).",
            "speed": "Nadar 30 pies (remo, viento)"
        },
        "Steam Trolley": {
            "name": "Carro de vapor",
            "description": "<p>Un carro de vapor es esencialmente un carro de vapor mucho más grande, con un caldero alquímico más pesado y un horno que se alimenta de una máquina de vapor más grande.</p> <p>El carro de vapor es un carro de vapor mucho más grande, con un caldero alquímico más pesado y un horno que se alimenta de una máquina de vapor más grande.",
            "crew": "1 piloto, 1 tripulación",
            "pilotingcheck": "Conducir Lore (DC 19) o Elaborar Artesanía (DC 21).",
            "speed": "25 pies (alquimia)"
        },
        "Chariot, Light": {
            "name": "Carro, Luz",
            "description": "",
            "crew": "1 piloto",
            "pilotingcheck": "Conducir Lore (DC 14) o Naturaleza (DC 16 a DC 24, dependiendo de la criatura que tira)",
            "speed": "La Velocidad de la criatura tiradora más lenta (tirada por 1 criatura Grande)"
        },
        "Wagon": {
            "name": "Vagón",
            "description": "",
            "crew": "1 piloto",
            "pilotingcheck": "Conducir Lore (DC 15) o Naturaleza (DC 17 a DC 25, dependiendo de la criatura que tira)",
            "speed": "La Velocidad de la criatura tiradora más lenta (tirada por 2 criaturas Grandes)"
        },
        "Apparatus of the Octopus": {
            "name": "Aparato del Pulpo",
            "description": "<p>Este aparato, que tiene forma de pulpo (o, más raramente, de calamar u otra criatura acuática), utiliza casi por completo propulsión mágica. Las piezas de relojería componen los controles y mecanismos para mejorar parte de la funcionalidad, pero la magia mueve los engranajes y ruedas dentadas del vehículo. Aunque sólo necesita un piloto, opcionalmente puede albergar a un segundo tripulante, lo que puede ser útil si éste controla las manos o los ojos del aparato.</p> <p>",
            "crew": "1 piloto",
            "pilotingcheck": "Conducir Lore (DC 28) o Elaborar Artesanía (DC 30).",
            "speed": "5 pies, Nadar 40 pies (reloj, mágico)"
        },
        "Ambling Surveyor": {
            "name": "Ambling Surveyor",
            "description": "<p>Este enorme vehículo mágico de relojería se desplaza sobre una banda continua de pesadas bandas de rodadura, que facilitan al aparato la navegación a través de diversos estados negativos (normalmente se abrevia a estado). Contiene pájaros mágicos que pueden transmitir información visual al topógrafo.",
            "crew": "1 piloto, 2 tripulantes",
            "pilotingcheck": "Conducir Lore (DC 32) o Elaborar Artesanía (DC 34).",
            "speed": "15 pies (relojería, mágico)"
        },
        "Automated Cycle": {
            "name": "Ciclo Automatizado",
            "description": "<p>Este ciclo de relojería proporciona la mayor parte de su Movilidad a través de engranajes y ruedas dentadas, que permiten que el ciclo se mueva a un ritmo razonable sin la necesidad de un esfuerzo de pedaleo significativo por parte del piloto. El piloto utiliza un sistema de pedales y dirección para controlar la velocidad y la dirección del vehículo. El vehículo viene equipado con dos sidecares, uno a cada lado del piloto.</p> <p>",
            "crew": "1 piloto",
            "pilotingcheck": "Conducir Lore (DC 15) o Elaborar Artesanía (DC 17).",
            "speed": "30 pies (relojería)"
        },
        "Cart": {
            "name": "Carro",
            "description": "",
            "crew": "1 piloto",
            "pilotingcheck": "Conducir Lore (DC 14) o Naturaleza (DC 16 a DC 24, dependiendo de la criatura que tira)",
            "speed": "La Velocidad de la criatura tiradora más lenta (tirada por 1 criatura Grande)"
        },
        "Speedster": {
            "name": "Speedster",
            "description": "<p>Un velocípedo es un chasis alquímico híbrido ligero y aerodinámico propulsado por relojería y vapor con la forma aproximada de un caballo u otra criatura construida para la velocidad. Los velocípedos se construyen para mantener un ritmo rápido que puede llegar a ser aún más rápido durante breves períodos de tiempo mediante la liberación de la presión de vapor almacenado para una ráfaga extra de velocidad.</p> <p>",
            "crew": "1 piloto",
            "pilotingcheck": "Conducir Lore (DC 27) o Elaborar Artesanía (DC 29).",
            "speed": "50 pies (alquimia, relojería)"
        },
        "Firework Pogo": {
            "name": "Firework Pogo",
            "description": "",
            "crew": "1 piloto",
            "pilotingcheck": "Elaboraría (DC 21) o Saber pilotar (DC 19).",
            "speed": "Saltar Jet (Alquimia)"
        },
        "Clunkerjunker": {
            "name": "Clunkerjunker",
            "description": "<p>Un favorito de los goblins, un clunkerjunker es esencialmente un carro blindado construido de chatarra que utiliza productos químicos inflamables volátiles, explosiones y reacciones alquímicas para impulsarse bumpily a lo largo. Aunque la idea inicial es impresionante y el coste de crear uno es sorprendentemente bajo, estos chatarreros, por desgracia, tienen una fuerte tendencia a funcionar mal, y siempre están a un mal golpe del desastre.</p> <p>",
            "crew": "1 piloto",
            "pilotingcheck": "Conducir Lore (DC 16) o Elaborar Artesanía (DC 18).",
            "speed": "30 pies (alquimia)"
        },
        "Mobile Inn": {
            "name": "Posada Movilidad",
            "description": "<p>Una posada móvil es el siguiente paso desde un carruaje blindado, trayendo las limitadas comodidades de una simple (y estrecha) estancia en una posada para hacer los viajes de larga distancia más soportables para los viajeros adinerados. Esencialmente una pequeña posada sobre ruedas, propulsada por catalizadores alquímicos y una máquina de vapor, el vehículo está equipado con una estufa, un armario, un lavabo, una mesa, dos bancos y un dormitorio compacto con capacidad para cuatro personas. Puede modificarse para acomodar a un solo pasajero con bastante más comodidad o para alojar fácilmente a 5 pasajeros desmontando las comodidades.</p> <p><strong>Preparación de la cabina</strong>.",
            "crew": "1 piloto",
            "pilotingcheck": "Conducir Lore (DC 24) o Elaborar Artesanía (DC 26).",
            "speed": "Velocidad 30 pies (alquímica)"
        },
        "Velocipede": {
            "name": "Velocipede",
            "description": "",
            "crew": "1 piloto",
            "pilotingcheck": "Atletismo (DC 15) o Conocimiento de Pilotaje (DC 17)",
            "speed": "Velocidad del piloto (pedaleando [como remando])"
        },
        "Sky Chariot, Heavy": {
            "name": "Carro Celeste, Pesado",
            "description": "",
            "crew": "1 piloto",
            "pilotingcheck": "Arcanos (DC 33), Naturaleza (DC 33 a 41, dependiendo de la criatura que tire), o Saber de Pilotaje (DC 31)",
            "speed": "la Velocidad de volar de la criatura que tira más lenta (tirada por 6 criaturas Grandes, 2 criaturas Enormes o 1 criatura Gargantuesca)"
        },
        "Sandsailer": {
            "name": "Sandsailer",
            "description": "",
            "crew": "1 piloto, 2 tripulantes",
            "pilotingcheck": "Atletismo (DC 39), Conocimientos de conducción (DC 34), Conocimientos de navegación (DC 34), o Naturaleza (DC 39)",
            "speed": "80 pies (Viento)"
        },
        "Clockwork Wagon": {
            "name": "Vagón Mecánico",
            "description": "<p>Un vagón de relojería es un vagón lento y voluminoso con engranajes y ruedas dentadas que recorren todo su interior y exterior, lo que le permite arrastrar aproximadamente el doble de carga que un vagón normal. Sin embargo, tiene menos espacio para pasajeros que un carro normal.</p> <p>",
            "crew": "1 piloto",
            "pilotingcheck": "Conducir Lore (DC 18) o Elaborar Artesanía (DC 20).",
            "speed": "20 pies (relojería)"
        },
        "Firefly": {
            "name": "Luciérnaga",
            "description": "<p>Una luciérnaga mezcla magia y tecnología, utilizando la magia de la electricidad y el magnetismo para flotar justo por encima del suelo. Aunque la luciérnaga tiene más forma de caja que de insecto, recibe su nombre del brillo constante de la luz y la electricidad mágicas que la impulsan, así como de los imanes estabilizadores que sobresalen de sus costados aproximadamente en la misma posición en la que estarían las alas.</p> <p>Las luciérnagas son una combinación de magia y tecnología.",
            "crew": "1 piloto",
            "pilotingcheck": "Saber pilotar (DC 20), Arcanos (DC 22) o Elaborar (DC 22).",
            "speed": "Flotar 20 pies (eléctrico, mágico)"
        },
        "Cliff Crawler": {
            "name": "Oruga del acantilado",
            "description": "",
            "crew": "1 piloto, 2 tripulantes",
            "pilotingcheck": "Arcanos (DC 29), Conocimientos de Ingeniería (DC 27), Conocimientos de Pilotaje (DC 27), o Naturaleza (DC 29)",
            "speed": "Trepar 40 pies (mágico)"
        },
        "Rowboat": {
            "name": "Bote de remos",
            "description": "",
            "crew": "1 piloto",
            "pilotingcheck": "Atletismo (DC 16) o Saber (navegar) (DC 14)",
            "speed": "Nadar 20 pies (a remo)"
        },
        "Titanic Stomper": {
            "name": "Titanic Stomper",
            "description": "<p>Entre los vehículos más peligrosos elaborados en Ustalav con una mezcla de magia y la nueva tecnología stasiana, un pisotón titánico tiene la forma de un largo y sinuoso lagarto o behir con Retorcer cuidadosamente colocados y ocho grandes patas de pisotón. Los pisotones titánicos estaban destinados a devastar los ejércitos de muertos vivientes. Sólo existen dos, lo que los hace casi únicos, y los medios para elaborar más se han estancado, ya que algunos de los inventores cruciales murieron en el proceso de hacer el diseño de una tecnología de seguimiento, un traje más pequeño pero más poderoso de armadura mecanizada llamado Grobelarch que finalmente se volvió loco y mató a sus creadores.</p> <p>",
            "crew": "1 piloto, 3 tripulantes",
            "pilotingcheck": "Conducir Lore (DC 34) o Elaborar Artesanía",
            "speed": "40 pies, (eléctrico, mágico)"
        },
        "Cauldron of Flying": {
            "name": "Caldero de Volar",
            "description": "<p>Una gran olla de 4 pies de alto y 5 pies de diámetro, abultada ligeramente en el centro y ensanchada en la parte superior.</p>",
            "crew": "1 piloto",
            "pilotingcheck": "Arcanos (DC 24), Ocultismo (DC 20), o Piloting Lore (DC 22)",
            "speed": "Volar 30 pies (mágico)"
        },
        "Chariot, Heavy": {
            "name": "Carro, Pesado",
            "description": "",
            "crew": "1 piloto",
            "pilotingcheck": "Conducir Lore (DC 18) o Naturaleza (DC 20 a DC 28, dependiendo de la criatura que tira)",
            "speed": "La Velocidad de la criatura tiradora más lenta (tirada por 2 criaturas Grandes)"
        },
        "Second Kiss": {
            "name": "Segundo Beso",
            "description": "<p>El Segundo Beso es una enorme aeronave rígida. Una envoltura de tela ovalada tensada sobre un armazón de madera y metal contiene una docena de bolsas de gas de floranina selladas que proporcionan la sustentación necesaria para que la nave despegue. Un par de hélices de relojería montadas en góndolas a ambos lados de la cabina de la tripulación proporcionan el movimiento de avance. La tripulación dirige la nave con timones y alerones en cuatro enormes aletas de cola.</p> <p>",
            "crew": "1 piloto, 3 tripulantes",
            "pilotingcheck": "Saber pilotar (DC 30) o Elaborar (DC 32).",
            "speed": "Volar 30"
        },
        "Steam Cart": {
            "name": "Carro de vapor",
            "description": "<p>Un carro de vapor parece un carro con un caldero alquímico que produce vapor para impulsar el movimiento del carro a través de un motor simple.</p>",
            "crew": "1 piloto",
            "pilotingcheck": "Conducir Lore (DC 16) o Elaborar Artesanía (DC 18).",
            "speed": "25 pies (alquimia)"
        },
        "gafl9oZCmfSGtfxj": {
            "name": "Tolva",
            "items-description": "<p>Este vehículo salta por el terreno mientras se desplaza por el suelo. La tolva de relojería ignora el terreno difícil de tierra, roca, escombros, laderas y maleza, y el terreno difícil mayor causado por esas características es terreno difícil normal para la tolva de relojería.</p> <p><strong>Terreno difícil</strong>."
        },
        "mTjyYbkFbVeKoGO8": {
            "name": "Sumergible",
            "items-description": "<p>El aparato del pulpo puede proteger a su tripulación y pasajeros de la presión del agua hasta una profundidad móxima de 1.500 metros y contiene aire suficiente para 12 horas para un piloto solo o 6 horas para un piloto y pasajero o miembro de la tripulación."
        },
        "upS8Tctv0gf8rQOC": {
            "name": "Soltar lastre",
            "items-description": "<p>El piloto suelta el lastre de la batisfera. La batisfera se mueve 3 veces su Velocidad hacia la superficie al final del turno del piloto.</p> <p><strong>Suelta lastre</strong>."
        },
        "yKd1wGx6zmlBwk0u": {
            "name": "Fall Apart",
            "items-description": "<p>Cuando este vehículo recibe daño físico, el piloto debe hacer un @Check[type:flat|dc:11]# (o un @Check[type:flat|dc:20]## cuando recibe un impacto crítico). En caso de fallo, el casco blindado se fractura y el vehículo pierde su Dureza y sufre una penalización de -4 a la CA."
        },
        "R2SaS8szVUWwiHQr": {
            "name": "Streamlined",
            "items-description": "<p>Este vehículo ligero no tiene espacio adicional para la carga.</p>"
        },
        "DoCusD26UNQbmFNI": {
            "name": "Rastrear continuamente",
            "items-description": "<p>Este vehículo se desplaza sobre una banda continua de pesadas bandas de rodadura accionadas por una serie de engranajes y ruedas, lo que le permite recorrer terrenos accidentados con facilidad. La tierra, las rocas, los escombros, las pendientes y la maleza no son terrenos difíciles para un agrimensor ambulante. El topógrafo ambulante ignora el terreno difícil de la tierra, la roca, los escombros, las pendientes y la maleza, y el mayor terreno difícil causado por esas características es terreno difícil normal para el topógrafo ambulante.</p> <p>"
        },
        "TMYxeMEQ1ilLoAlJ": {
            "name": "Wind Up",
            "items-description": "<p>(10 minutos de cuerda, 10 minutos de funcionamiento, CC 26, espera)</p>\n<p>Para que un mecanismo de relojería actúe, debe ser enrollado con una llave única por otra criatura. Esto lleva 1 minuto. Una vez herido, permanece operativo durante el tiempo indicado, normalmente 24 horas, tras lo cual deja de ser consciente de su entorno y no puede actuar hasta que se le vuelva a dar cuerda. Algunas habilidades de los mecanismos de relojería requieren que gasten parte de su tiempo operativo restante. No pueden gastar más del que tienen y se apagan inmediatamente cuando les queda 0 de tiempo. Si no está claro cuándo se le dio cuerda por última vez a un mecanismo de relojería, la mayoría de los relojeros le dan cuerda a todos sus mecanismos de relojería a una hora determinada, normalmente a las 8 de la mañana.\n<p>Un mecanismo de relojería que indique espera en su entrada de cuerda puede entrar en modo de espera como una actividad de 3 acciones. Su tiempo de funcionamiento no disminuye en espera, pero puede percibir su entorno (con una penalización de -2 a Percepción). No puede actuar, con una excepción: cuando percibe a una criatura, puede salir del modo de espera como reacción (tirando iniciativa si procede).</p> <p>Una criatura puede intentar entrar en el modo de espera como actividad de 3 acciones.\n<p>Una criatura puede hacer Inutilizar un mecanismo para dar cuerda a un mecanismo de relojería (con una DC indicada en la entrada de dar cuerda). Por cada éxito, el mecanismo de relojería pierde 1 hora de tiempo operativo. Esto se puede hacer incluso si el reloj está en modo de espera."
        },
        "V86H5yeH71jmelzY": {
            "name": "Sumergible",
            "items-description": "<p>El buzo tiburón puede viajar bajo la superficie del agua, llevando un depósito de aire adecuado para mantener a 11 criaturas medianas hasta 24 horas. El buzo tiburón puede alcanzar con seguridad profundidades de hasta 300 pies. Si se rompe, el buzo tiburón pierde aire de su reserva, reduciendo el aire almacenado en 10 minutos por asalto. Un buzo tiburón roto tiene su profundidad máxima reducida a la mitad.</p> <p>"
        },
        "Gy4AuNFAGBzfjRFq": {
            "name": "Smog",
            "items-description": "<p>@Template[type:emanation|distance:10]{10 feet} @UUID[Compendium.pf2e.bestiary-ability-glossary-srd.v61oEQaDdcRpaZ9X]{Aura}</p>\n<hr />\n<p>Siempre que se pilota este vehículo, emite continuamente una fina neblina de humo y sustancias químicas. Las criaturas que se encuentren en el aura (incluidos el piloto y los pasajeros) sufren una penalización de circunstancia de -1 a los chequeos de Percepción visual.</p> <p><strong>Percepción visual</strong>."
        },
        "79YskaB7D1bAmIDD": {
            "name": "Lanzallamas Volátil",
            "items-description": "<p>El piloto realiza una actividad de tres acciones en su turno para expulsar fuego alquímico por los laterales de este vehículo. Esto requiere tres frascos de fuego alquímico inferior, que el piloto carga en el respiradero como parte de la actividad. A continuación, el piloto debe hacer un @Check[type:flat|dc:5]. Si tiene éxito, las criaturas adyacentes al vehículo reciben [[/r 1d8[fuego]]] de daño (@Check[type:reflex|dc:15|basic:true|name:Avoid Flames]). Si falla, le sale el tiro por la culata e inflige [[/r 1d8[fuego]]] de daño al piloto y a los pasajeros, sin posibilidad de salvación.</p> <p>"
        },
        "eXdF4IskaccqgTpS": {
            "name": "Encuesta",
            "items-description": "<p><strong>Requisitos</strong> El topógrafo amblador no está en movimiento</p>\n<hr />\n<p><strong>Efecto</strong> El piloto y la tripulación sueltan una colección de seis pájaros de relojería, que pasan dos horas volando sobre los alrededores en un radio de 1 milla alrededor del topógrafo ambulante. Todo lo que ven los pájaros se transmite mágicamente a la tripulación del topógrafo ambulante en forma de imágenes ilusorias, que la tripulación debe catalogar en tiempo real si quiere utilizar la información para inspeccionar completamente la zona y elaborar un mapa. Al cabo de dos horas, las aves regresan. Los pájaros utilizan las estadísticas base de un @UUID[Compendium.pf2e.pathfinder-bestiary-3.cKZtOsBlN3Qu8Kyq]{Espía Mecánico} si son atacados, o si su Percepción es importante para determinar lo que pueden ver, aunque sólo interpretan la acción de Inspeccionar y no tienen ninguna de las otras habilidades de un espía mecánico. Los pájaros de repuesto cuestan 250 gp cada uno.</p> <p>Los pájaros de repuesto cuestan 250 gp cada uno."
        },
        "dabct2Mb2XcbWKwb": {
            "name": "Maniobrable",
            "items-description": "<p>Este vehículo está montado sobre diez patas en forma de araña que le permiten girar con rapidez, girar en su sitio e incluso moverse hacia atrás. Cada giro de 90 grados realizado en menos de una longitud de vehículo cuesta 5 pies extra de movimiento; así, por ejemplo, al vehículo le cuesta 10 pies de movimiento dar la vuelta y empezar a moverse hacia atrás. Este vehículo pierde estos beneficios cuando @UUID[Compendium.pf2e.conditionitems.6dNUvdb1dhToNDj3]{Broken}##.</p> <p>"
        },
        "L5LOLKdKxPBT5LCB": {
            "name": "Iron Rim",
            "items-description": "<p>El caldero proporciona a su piloto @UUID[Compendium.pf2e.other-effects.I9lfZUiCwMiGogVi]{Standard Cover}#, aunque esta cobertura no suele proporcionar ninguna bonificación a los chequeos de Sigilo, ya que un caldero volando es visible y sospechoso.</p> <p>"
        },
        "lctMsuE0KxKUZgnH": {
            "name": "Wind-Up",
            "items-description": "<p>10 minutos de arranque, 1 hora de tiempo de funcionamiento, DC 14, en espera</p>"
        },
        "oWlyE6XYOLX2gBB6": {
            "name": "Arma Mount",
            "items-description": "<p>Este vehículo tiene una montura de arma trasera que se puede equipar con un arma a distancia. Al comprarlo, esta montura de arma está vacía. Instalar o desinstalar un arma en esta montura requiere 10 minutos, una @Check[type:crafting|dc:20|name:Attach weapon] exitosa, así como un arma apropiada para instalar.</p> <p>"
        },
        "7OqKezdHChnhLvmc": {
            "name": "Sluggish",
            "items-description": "<p>Este vehículo debe desplazarse el doble de su longitud por cada giro de 90 grados que realice.</p>"
        },
        "UZrxxtljdLoLewB9": {
            "name": "Desplegar Ruedas",
            "items-description": "<p>El piloto acciona una palanca que activa los componentes de relojería para transformar las norias del remo adaptable en ruedas para rodar por el suelo. Esto otorga al bote de remos adaptable una Velocidad de 20 pies y reduce su Velocidad de Nadar a 5 pies. Esta transformación dura hasta que el piloto desactive las ruedas usando esta actividad de nuevo.</p> <p>"
        },
        "QwXzg5zGAZg4h78t": {
            "name": "Frágil",
            "items-description": "<p>Conducir el velocípedo por terreno difícil aumenta la CC en 2 adicionales y gana el rasgo temerario.</p>"
        },
        "cFwKXyV5W3o1v3KK": {
            "name": "Secreciones Adhesivas",
            "items-description": "<p>Este vehículo segrega un adhesivo alquímico que le permite adherirse y trepar por superficies sólidas. Los espacios por los que se mueve el caracol entrenador se convierten en terreno difícil durante 1 asalto. Cualquier criatura que termine su turno sobre el adhesivo debe tener éxito en un @Check[type:reflex|dc:23|name:Avoid adhesive] o sufrir una penalización de situación de -10 pies a sus Velocidades durante 1 asalto. En un fallo crítico, la criatura también queda @UUID[Compendium.pf2e.conditionitems.eIcWbB5o3pP6OIMe]{Immobilized} durante 1 asalto (@UUID[Compendium.pf2e.actionspf2e.SkZAQRkLLkmBQNB9]{Huir} DC 23).</p>"
        },
        "tS9MnEsewMslgzhi": {
            "name": "Wind-Up",
            "items-description": "<p>10 minutos de arranque, 1 hora de tiempo de funcionamiento, DC 35, en espera</p>"
        },
        "PqsmKTcXOM0aNYo8": {
            "name": "Shard Trail",
            "items-description": "<p>Un buzo de arena sólo puede @UUID[Compendium.pf2e.actionspf2e.H6v1VgowHaKHnVlG]{Burrow} atravesar la arena, utilizando el calor y la llama de su núcleo alquímico para abrirse paso lentamente. Los vapores alquímicos que deja tras de sí quedan atrapados bajo tierra al excavar, catalizando temporalmente fragmentos de arena y convirtiéndolos en un subproducto similar al cristal. Las criaturas que atraviesan un espacio en el que este vehículo ha excavado en las últimas 24 horas sufren [[/r 1d12[perforante]]] de daño por los fragmentos (@Check[type:fortitude|dc:17|basic:true|name:Avoid shards]). Una criatura que continúe excavando a través de un tramo del mismo espacio por el que el buzo de arena ha excavado recientemente debe seguir haciendo este intento de salvación la primera vez en cada ronda que excava a través de los fragmentos."
        },
        "jv3XUW2upC7aFRtR": {
            "name": "Ojos Abiertos",
            "items-description": "<p>Un tripulante tira de una palanca para abrir los ojos del aparato, que emiten luz brillante en un radio de 6 metros y luz tenue en los 6 metros siguientes. Un miembro de la tripulación puede realizar esta acción de nuevo para cerrar los ojos.</p> <p>"
        },
        "MBdI0c7xv3ufaJM8": {
            "name": "Protección del entorno",
            "items-description": "<p>La temperatura interior de este vehículo se mantiene mágicamente. Las criaturas en el interior de este vehículo están protegidas contra el frío intenso, el calor intenso, el frío extremo y el calor extremo.</p> <p>"
        },
        "W01aasqmTJL5TpkW": {
            "name": "Lanzamiento inestable",
            "items-description": "<p>Cuando el piloto utiliza una actividad de 3 acciones para imprudentemente @UUID[Compendium.pf2e.actionspf2e.uS3qDAgOkZ7b8ERL]{Drive}## el pogo de fuegos artificiales, emite una ráfaga de llamas al lanzarse que inflige [[/r 3d6[fuego]]] de daño al piloto, al propio pogo y a cada criatura en un radio de 3 metros (###348d7f63f75c6459484a4ca095e9af###XXX##### de salvación).</p>"
        },
        "rDwfQJPnK5YyRx7v": {
            "name": "Sluggish",
            "items-description": "<p>Este vehículo debe desplazarse el doble de su longitud por cada giro de 90 grados que realice.</p>"
        },
        "9UcPAPPrzEhaoWgY": {
            "name": "Portaged",
            "items-description": "<p>El bote de remos puede ser transportado por tierra por 2 criaturas Medianas o 1 criatura Grande. Esas criaturas están impedidas/a al hacerlo.</p> <p>"
        },
        "TPj4AFDezXubgaJm": {
            "name": "Taladro Adamantino",
            "items-description": "<p>Mientras que la mayoría de las Velocidades de madriguera sólo permiten a una criatura o vehículo moverse a través de tierra suelta o tierra, este vehículo está equipado con un taladro adamantino y puede madriguera a través de lecho de roca y piedra a una velocidad de 1,5 metros por minuto.</p> <p><strong>Taladro adamantino</strong>."
        },
        "QUHIpCfam8YMHy6U": {
            "name": "Absorción Eléctrica",
            "items-description": "<p><strong>Desencadenante</strong> El pisotón titánico es el objetivo de, o está en el área de, un efecto que inflige daño de electricidad</p>.\n<hr />\n<p><strong>Efecto</strong> El piloto utiliza su reacción para activar las bobinas de Stasian, que canaliza la electricidad hacia el motor eléctrico del pisotón titánico. La próxima vez que se use Ráfaga de pernos en el siguiente minuto, el daño que inflige aumenta a [[/r 7d12[electricidad]]] de daño.</p> <p>"
        },
        "tFb8nV3bxHVLeU8Z": {
            "name": "Maniobrable",
            "items-description": "<p>Con una dotación completa de remeros hábiles, una galera de remos puede girar con rapidez, girar en su sitio e incluso remar hacia atrás. Cada giro de 90 grados realizado en menos de una longitud de vehículo cuesta 5 pies extra de movimiento. No puede remar hacia atrás más rápido que la mitad de su velocidad, y no puede girar mientras rema hacia atrás.</p> <p>"
        },
        "rvLRBCsFQMdUKtar": {
            "name": "Sand Skimmer",
            "items-description": "<p>La barcaza de arena puede viajar sobre arena, agua y arenas movedizas igual de bien, pero no puede atravesar tierra firme.</p>"
        },
        "Rb4MyOLlodPUZdJX": {
            "name": "Flame Jet",
            "items-description": "<p>Dos miembros de la tripulación realizan cada uno una actividad de 3 acciones en su turno para producir un chorro de llamas que brota al final del turno del segundo personaje desde cualquier esquina de cualquier espacio que ocupe el gigante de vapor. Las llamas infligen [[/r 6d8[fuego]]] de daño a cada criatura en un cono de 30 pies (@Check[type:reflex|dc:32|basic:true]# salvación). El chorro de llamas deja de funcionar si el gigante de vapor está roto.</p> <p>"
        },
        "XvCWEJlIIDSfz2EA": {
            "name": "Ice Traverser",
            "items-description": "<p>El hielo y la nieve no son terreno difícil para un trineo, pero todos los demás terrenos son terreno difícil para él.</p>"
        },
        "PcXltLxBnG3FD8dH": {
            "name": "Portable",
            "items-description": "<p>El velocípedo puede ser arrastrado por el suelo sobre su rueda por una criatura Mediana. La criatura está impedida/a al hacerlo.</p> <p>"
        },
        "scXXuno9YNm1GWXK": {
            "name": "Asientos pivotantes",
            "items-description": "<p>Los asientos de este vehículo están montados sobre una plataforma ponderada que pivota a medida que el vehículo se mueve, ajustando automáticamente la posición con la gravedad. Las criaturas sentadas permanecen erguidas sin importar la posición o el ángulo del vehículo.</p> <p>"
        },
        "jUfFzSzu0PIwCSgB": {
            "name": "Mountain Traverser",
            "items-description": "<p>Las rocas y las piedras no son terreno difícil para un trepador de acantilados, y puede atravesar la mayoría de superficies verticales de roca y piedra hasta a la mitad de su Velocidad.</p> <p><strong>Pequeño trepador de montañas</strong>."
        },
        "uoev6dRtG1YFWPrn": {
            "name": "Apertura de ojos de buey",
            "items-description": "<p>Un tripulante tira de una palanca para abrir dos ojos de buey, lo que permite a la tripulación ver el exterior del aparato y a otras criaturas ver el interior. Un miembro de la tripulación puede realizar esta acción de nuevo para cerrar los ojos de buey.</p>"
        },
        "RJf32Bczb9zQaFqs": {
            "name": "Sluggish",
            "items-description": "<p>Este vehículo debe desplazarse el doble de su longitud por cada giro de 90 grados que realice.</p>"
        },
        "hCwx6Q30DbNVZa88": {
            "name": "Sluggish",
            "items-description": "<p>Debido a su lentitud, este vehículo debe moverse el doble de su longitud por cada giro de 90 grados que realice.</p>"
        },
        "Qx3tJuimyRKT7l2W": {
            "name": "Cable",
            "items-description": "<p>La batisfera se eleva y desciende desde un cable en la superficie y sólo puede moverse verticalmente.</p> <p>La batisfera se eleva y desciende desde un cable en la superficie y sólo puede moverse verticalmente."
        },
        "L0S2jaWemV8ndKIE": {
            "name": "Sidecars",
            "items-description": "<p>Cada uno de los dos sidecars puede llevar 1 pasajero o 10 bultos. La Velocidad del ciclo automatizado se reduce en 5 pies por cada sidecar que contenga un pasajero o carga.</p> <p>"
        },
        "UQr6y2RUCvhlcvZ3": {
            "name": "Barrera de protección",
            "items-description": "<p>Aunque los anillos arremolinados del vehículo no cubren por completo al piloto, ofrecen una sensacional protección, manteniendo mágicamente la temperatura en su interior y abatiendo los ataques físicos. El piloto está protegido contra el frío intenso, el calor intenso, el frío extremo y el calor extremo. El piloto también gana resistencia 10 a todos los daños físicos (excepto adamantina).</p> <p>"
        },
        "O5JvDSJWNWG2VtpR": {
            "name": "Electrify",
            "items-description": "<p><strong>Frecuencia</strong> una vez por minuto</p>\n<hr />\n<p><strong>Efecto</strong> Dos miembros de la tripulación interpretan cada uno una actividad de 2 acciones en su turno para emitir un pulso eléctrico, que inflige [[/r 6d6[electricidad]]]{6d6 de daño por electricidad} a todas las criaturas en un radio de @Template[type:emanation|distance:10]{10 pies}## del buzo tiburón. La tripulación y los pasajeros del buzo tiburón no se ven afectados. Las criaturas afectadas deben hacer una salvación @Check[type:fortitude|dc:28|basic:true]#.</p> <p>"
        },
        "zGMODH6r1X3ZbwB1": {
            "name": "Sluggish",
            "items-description": "<p>Este vehículo debe desplazarse el doble de su longitud por cada giro de 90 grados que realice.</p>"
        },
        "kr1leAaQlGXDTwn6": {
            "name": "Wind-Up",
            "items-description": "<p>10 minutos de arranque, 2 horas de funcionamiento, DC 28, standby</p>"
        },
        "vDMm6mf0S2i9JMzd": {
            "name": "Ráfaga de Pernos",
            "items-description": "<p>Dos miembros de la tripulación realizan cada uno una actividad de tres acciones en su turno para disparar una línea de relámpagos al final del turno del segundo personaje. Esta línea de relámpagos brota de la parte delantera del pisotón titánico en un ángulo a elección de los tripulantes e inflige [[/r 5d12[electricidad]]] de daño a cada criatura en una línea de 120 pies (@Check[type:reflex|dc:34|basic:true|name:Avoid the blast]#). La Ráfaga de rayos deja de funcionar si el pisotón titánico está @UUID[Compendium.pf2e.conditionitems.6dNUvdb1dhToNDj3]{Roto}.</p> <p>"
        },
        "iU2xj2sIMM3UdezU": {
            "name": "Aumento de Velocidad",
            "items-description": "<p>El piloto libera la presión acumulada en la máquina de vapor alquímica del velocista para aumentar temporalmente su Velocidad. Durante [[/r 1d4 #asaltos]]{1d4 asaltos}, la Velocidad del velocista pasa a ser de 80 pies y todas las acciones de movimiento que realice el piloto obtienen el rasgo temerario. Cuando el piloto realiza una acción que ya tendría el rasgo temerario, el piloto utiliza el grado de éxito uno peor que el que obtuvo en el chequeo de pilotaje. El piloto temerario no puede volver a usar Aumento de Velocidad durante 1 hora, ya que la presión requiere tiempo para reconstruirse.</p> <p>"
        },
        "kbVUEpQsOKNyw0BS": {
            "name": "Nube de vapor",
            "items-description": "<p>Cada vez que el carro de vapor recibe daño por colisión, su motor expulsa una densa nube de vapor en un @Template[type:emanation|distance:5]. El carro de vapor y todas las criaturas en el vapor se vuelven @UUID[Compendium.pf2e.conditionitems.DmAIPqOBomZ7H95W]{Concealed}#, y las criaturas fuera del vapor se vuelven ocultas para las criaturas dentro de él. El vapor se disipa en 1 asalto.</p> <p>"
        },
        "XLttadhtgYoOq6f1": {
            "name": "Flash",
            "items-description": "<p>El piloto sobrecarga el vehículo, haciendo que cree un brillante destello de luz. Todas las criaturas bajo la brillante luz de su aura resplandeciente deben tener éxito en un @Check[type:fortitude|dc:19|name:Avoid flash] o quedar @UUID[Compendium.pf2e.conditionitems.TkIyaNPgTZFBCCuh]{Dazzled}## durante 1 minuto. La luz de la luciérnaga se atenúa durante 10 minutos, reduciendo su resplandor a 3 metros de luz tenue, tiempo durante el cual no puede utilizar el flash. El flash deja de funcionar si la luciérnaga se rompe.</p> <p>"
        },
        "kQbyDtF75cOAr2Lc": {
            "name": "Wind-Up",
            "items-description": "<p>10 minutos de wind-up, 1 hora de tiempo de funcionamiento, DC 26, standby</p>"
        },
        "38Zgv0sAfLXH2dfB": {
            "name": "Wind-Up",
            "items-description": "<p>1 hora de wind-up, 8 horas de tiempo de funcionamiento, DC 18, standby</p>"
        },
        "VqS08x8SzApqcmVy": {
            "name": "Monturas de armas",
            "items-description": "<p>Este vehículo tiene cuatro montajes de armas en el techo; un montaje en cada esquina del vehículo. Al comprarlo, estos soportes de armas están inicialmente vacíos. Instalar o desinstalar un arma en un soporte de armas requiere 10 minutos, una @Check[type:crafting|dc:35|name:Attach a weapon]# exitosa y un arma apropiada. Tres de estas monturas de armas se pueden equipar con armas a distancia, y la cuarta se puede equipar con un arma de asedio a distancia de tamaño Grande o inferior.</p> <p><strong><strong>Estrategia de asedio a distancia</strong></strong></strong>."
        },
        "zni42kvDwzT6lzuW": {
            "name": "Wind-Up",
            "items-description": "<p>10 minutos de wind-up, 1 hora de tiempo de funcionamiento, DC 37, standby</p>"
        },
        "0pWllu1H0c2ZTJbM": {
            "name": "Hauler",
            "items-description": "<p>Este vehículo está diseñado para transportar carga pesada a largas distancias. Tiene capacidad para 400 Bulk de carga.</p>"
        },
        "V0Iw3ZOvbTqoxlvz": {
            "name": "Jump Jet",
            "items-description": "<p>El pgo pirotécnico se mueve exclusivamente mediante @UUID[Compendium.pf2e.actionspf2e.d5I6018Mci2SWokk]{Salto}#. Por cada acción gastada en @UUID[Compendium.pf2e.actionspf2e.uS3qDAgOkZ7b8ERL]{Conducir}#, el pogo salta 6 metros horizontalmente o 3 metros verticalmente.</p> <p>"
        },
        "Buxx8NC3JQzeLsjs": {
            "name": "Sluggish",
            "items-description": "<p>Este vehículo debe desplazarse el doble de su longitud por cada giro de 90 grados que realice.</p>"
        },
        "xB0A9RW1Zi6TC7g0": {
            "name": "Starting Drop",
            "items-description": "<p>La única forma de despegar un parapente Hillcross es saltar desde una pendiente pronunciada con condiciones de viento favorables. El planeador no está controlado y cae 60 pies en cada ronda hasta que el piloto consigue @UUID[Compendium.pf2e.actionspf2e.yh9O9BQjwWrAIiuf]{Toma el Control}#. Si el planeador toca el suelo antes de que el piloto tome el control, tanto el piloto como el planeador sufrirán daños por caída."
        },
        "2UISHdYECuDVkedh": {
            "name": "Sluggish",
            "items-description": "<p>Este vehículo debe desplazarse el doble de su longitud por cada giro de 90 grados que realice.</p>"
        },
        "3WQ9vWhVa2yyJCcV": {
            "name": "Alojamiento de lujo",
            "items-description": "<p>Este vehículo contiene un puente de mando, una sala de ingeniería, dormitorios privados para un máximo de 13 criaturas y cuatro habitaciones adicionales (normalmente un comedor, una cocina, un aseo y una sala de reuniones)</p> <p>"
        },
        "uP38cyn9BsX8ni0O": {
            "name": "Salto masivo",
            "items-description": "<p>El piloto acciona un mecanismo accionado por un muelle que lanza la tolva de relojería por los aires, en un gran salto. El vehículo salta en línea recta en la dirección de su rumbo actual sin tocar el suelo, aterrizando en un espacio de tierra firme de hasta 70 pies hacia adelante y hasta 30 pies hacia arriba. Las criaturas adyacentes a los espacios en los que aterriza la tolva reciben un daño @Check[type:reflex|dc:22|basic:true|name:Avoid clockwork hopper]#, y quedan tumbadas @UUID[Compendium.pf2e.conditionitems.j91X7x0XSomq8d60]{Prone}## en caso de fallo crítico. La tolva del reloj no puede volver a usar Salto Masivo durante 1 minuto. Salto masivo deja de funcionar si la tolva de relojería está @UUID[Compendium.pf2e.conditionitems.6dNUvdb1dhToNDj3]{Broken}#.</p> <p>."
        },
        "kt9xSEJnhJNdCBEy": {
            "name": "Captivating Wealth",
            "items-description": "<p>@Template[type:emanation|distance:40]{40 feet} @UUID[Compendium.pf2e.bestiary-ability-glossary-srd.v61oEQaDdcRpaZ9X]{Aura}</p>\n<hr />\n<p>El oro, las gemas y otros adornos que adornan esta esfera voladora emiten un resplandor centelleante capaz de cautivar a las criaturas. Cada criatura que comienza su turno dentro del aura debe hacer un @Check[type:will|dc:36|traits:magic]; Si falla, la criatura queda @UUID[Compendium.pf2e.conditionitems.AdPVz7rbaVSRxHFg]{Fascinada} y @UUID[Compendium.pf2e.conditionitems.e1XGnhKNSQIm5IXg]{Anonadada 2}# mientras permanezca dentro del aura. Una criatura que lo consiga queda temporalmente inmune durante 1 hora. Cada vez que se activa Defensa prismática, el área de Riqueza cautivadora se reduce en 3 metros durante 1 hora, hasta un mínimo de 0 metros.</p> <p>"
        },
        "R4Co971n6x5ZNJHd": {
            "name": "Wind-Up",
            "items-description": "<p>10 minutos de arranque, 1 hora de funcionamiento, DC 32, standby</p>"
        },
        "0CcYSQlAiZcoMkF0": {
            "name": "Ensartar Paso",
            "items-description": "<p>Dos miembros de la tripulación realizan cada uno una actividad de 3 acciones en su turno para ensartar a los enemigos cercanos con las patas del castillo mecánico. Todas las criaturas bajo el vehículo o adyacentes a él al final del turno del segundo personaje reciben [[/r 7d8[perforante]]] de daño (@Check[type:reflex|dc:35|basic:true|name:Avoid leg]#).</p>"
        },
        "izZwMB8zgdsWje9o": {
            "name": "Defensa Prismática",
            "items-description": "<p>El piloto aprovecha el poder de las gemas mágicas escondidas entre los extravagantes adornos de este vehículo para otorgarle defensas adicionales. Este vehículo obtiene resistencia 20 a uno de los siguientes tipos de daño energético: ácido, frío, electricidad, fuego, fuerza o sónico. Esta inmunidad dura hasta que se vuelva a activar Defensa prismática.</p> <p>"
        },
        "KFSpJiu6uoHoZl1b": {
            "name": "Manipular Manos",
            "items-description": "<p>Un miembro de la tripulación acciona una palanca configurada como un joystick, lo que le permite extender y manipular las manos del aparato. Aunque las manos no pueden atacar y no pueden realizar acciones finas como @UUID[Compendium.pf2e.actionspf2e.cYdz2grcOcRt4jk6]{Inutilizar un mecanismo}, @UUID[Compendium.pf2e.actionspf2e.RDXXE7wMrSPCLv5k]{Sustraer} algo, o abrir el tapón de una botella de poción, pero pueden agarrar y sostener hasta 50 Bulk.</p> <p>"
        },
        "ChjOaa11CkBJeVJ8": {
            "name": "Glow",
            "items-description": "<p>Potenciado por un rayo mágico, este vehículo emite luz brillante en un radio de 6 metros, y luz tenue durante otros 6 metros.</p>"
        },
        "V0HecEvj92RlltT5": {
            "name": "Sluggish",
            "items-description": "<p>Este vehículo debe desplazarse el doble de su longitud por cada giro de 90 grados que realice.</p>"
        },
        "3Vt9tFjjJmSsJ99w": {
            "name": "Wind-Up",
            "items-description": "<p>10 minutos de arranque, 1 hora de funcionamiento, DC 16, standby</p>"
        },
        "fG2IE4D8GEe8e98D": {
            "name": "Hover",
            "items-description": "<p>Este vehículo se mantiene en el aire mediante hélices que giran rápidamente y le permiten flotar a 30 cm de altura. Es incapaz de volar más alto, y cuando el piloto detiene la magia o el vehículo se rompe, desciende 1 pie hasta el suelo.</p> <p><strong>Este vehículo se mantiene en el aire mediante hélices que giran rápidamente y que le permiten flotar a 1 pie de altura."
        },
        "zEf7XS6RlEjM0VSO": {
            "name": "Wind-Up",
            "items-description": "<p>10 minutos de arranque, 1 hora de tiempo de funcionamiento, DC 22, en espera</p>"
        },
        "7LOtkjkF6S8p6CRA": {
            "name": "Boya de amarre",
            "items-description": "<p>La tripulación y los pasajeros pueden respirar mientras el vehículo está bajo el agua a una profundidad de 500 pies o menos.</p>"
        },
        "Ix4GHIqSUqHawiG8": {
            "name": "Starting Drop",
            "items-description": "<p>La única forma de despegar un planeador es saltar desde una pendiente pronunciada con condiciones de viento favorables. El planeador no está controlado/a y cae 60 pies en cada ronda hasta que el piloto Toma el Control con éxito. Si el parapente toca el suelo antes de que el piloto consiga @UUID[Compendium.pf2e.actionspf2e.yh9O9BQjwWrAIiuf]{Toma el Control}, tanto el piloto como el parapente recibirán daño al caer.</p> <p>"
        },
        "Yr2rxvC8Hzmb70KZ": {
            "name": "Sluggish",
            "items-description": "<p>Este vehículo debe desplazarse el doble de su longitud por cada giro de 90 grados que realice.</p>"
        },
        "eMf9xcynjFjF5ma8": {
            "name": "Wind-Up",
            "items-description": "<p>10 minutos de wind-up, 1 hora de tiempo de funcionamiento, DC 20, standby</p>"
        },
        "lTX8qPMdwaThuCnc": {
            "name": "Paso Tembloroso",
            "items-description": "<p>El suelo tiembla con cada paso que da un Pisotón titánico. Siempre que este vehículo se mueva, las criaturas en el suelo en un radio de 6 m de su trayectoria de movimiento deben hacer un @Check[type:reflex|dc:32|name:Stay standing]. En caso de fallo, quedan @UUID[Compendium.pf2e.conditionitems.AJh5ex99aV6VTggg]{Piesplanos} durante 1 asalto, y en caso de fallo crítico, quedan @UUID[Compendium.pf2e.conditionitems.j91X7x0XSomq8d60]{Prone}##.</p>"
        },
        "b3OQJLYv4hEX7yhn": {
            "name": "Largo Alcance",
            "items-description": "<p>El zancadista puede salvar una brecha de hasta 9 metros de ancho dando una Zancada sobre ella.</p> <p>El zancadista puede salvar una brecha de hasta 9 metros de ancho dando una Zancada sobre ella."
        }
    },
    "mapping": {
        "description": "system.details.description",
        "cadetails": "system.attributes.ac.details",
        "ci": "system.traits.ci.custom",
        "crew": "system.details.crew",
        "damageimmunity": "system.traits.di.custom",
        "damageresistance": "system.traits.dr.custom",
        "damagevulnerability": "system.traits.dv.custom",
        "hpdetails": "system.attributes.hp.details",
        "pilotingcheck": "system.details.pilotingCheck",
        "speed": "system.details.speed",
        "traits": "system.traits.traits.custom",
        "items-description": "system.description.value",
        "items-variant0": "system.variants.0.label",
        "items-variant1": "system.variants.1.label",
        "items-variant2": "system.variants.2.label"
    }
}