{
    "label": "Macros de acciones",
    "reference": [],
    "entries": {
        "Lie: Deception": {
            "name": "Mentir: Enga",
            "description": "NO TRADUCIR"
        },
        "Perform - Play percussion instrument: Performance": {
            "name": "Interpretar - Tocar instrumento de percusión: Interpretar",
            "description": "NO TRADUCIR"
        },
        "Pick a Lock: Thievery": {
            "name": "Forzar una cerradura: Latrocinio",
            "description": "NO TRADUCIR"
        },
        "Decipher Writing: Religion": {
            "name": "Descifrar escritura: Religión",
            "description": "NO TRADUCIR"
        },
        "Subsist: Survival": {
            "name": "Subsistir: Supervivencia",
            "description": "NO TRADUCIR"
        },
        "Coerce: Intimidation": {
            "name": "Obligar: Intimidación",
            "description": "NO TRADUCIR"
        },
        "Bon Mot: Diplomacy": {
            "name": "Comentario agudo: Diplomacia",
            "description": "NO TRADUCIR"
        },
        "Craft: Crafting": {
            "name": "Elaborar: Elaborar Artesanía",
            "description": "NO TRADUCIR"
        },
        "Balance: Acrobatics": {
            "name": "Mantener el equilibrio: Acróbata",
            "description": "NO TRADUCIR"
        },
        "Sense Direction: Survival": {
            "name": "Sentir la dirección: Supervivencia",
            "description": "NO TRADUCIR"
        },
        "Gather Information: Diplomacy": {
            "name": "Reunir información: Diplomacia",
            "description": "NO TRADUCIR"
        },
        "Long Jump: Athletics": {
            "name": "Salto de longitud: Atletismo",
            "description": "NO TRADUCIR"
        },
        "Make an Impression: Diplomacy": {
            "name": "Causar impresión: Diplomacia",
            "description": "NO TRADUCIR"
        },
        "Command an Animal: Nature": {
            "name": "Comandar a un animal: Naturaleza",
            "description": "NO TRADUCIR"
        },
        "Perform - Play string instrument: Performance": {
            "name": "Interpretar - Tocar instrumento de cuerda: Interpretar",
            "description": "NO TRADUCIR"
        },
        "Impersonate: Deception": {
            "name": "Imitar: Enga",
            "description": "NO TRADUCIR"
        },
        "Perform - Play keyboard instrument: Performance": {
            "name": "Interpretar - Tocar instrumento de teclado: Interpretar",
            "description": "NO TRADUCIR"
        },
        "Encouraging Words": {
            "name": "Palabras alentadoras",
            "description": "NO TRADUCIR"
        },
        "Shove: Athletics": {
            "name": "Empujar: Atletismo",
            "description": "NO TRADUCIR"
        },
        "Perform - Dance: Performance": {
            "name": "Interpretar - Danzante: Interpretar",
            "description": "NO TRADUCIR"
        },
        "Perform - Comedy: Performance": {
            "name": "Interpretar - Comedia: Interpretar",
            "description": "NO TRADUCIR"
        },
        "Decipher Writing: Society": {
            "name": "Descifrar escritura: Sociedad",
            "description": "NO TRADUCIR"
        },
        "Treat Poison: Medicine": {
            "name": "Tratar veneno: Medicina",
            "description": "NO TRADUCIR"
        },
        "Tamper: Crafting": {
            "name": "Tamper: Artesanía",
            "description": "NO TRADUCIR"
        },
        "Perform - Play wind instrument: Performance": {
            "name": "Interpretar - Tocar instrumento de viento: Interpretar",
            "description": "NO TRADUCIR"
        },
        "Perform - Acting: Performance": {
            "name": "Interpretar - Actuar: Interpretar",
            "description": "NO TRADUCIR"
        },
        "Request: Diplomacy": {
            "name": "Pedir: Diplomacia",
            "description": "NO TRADUCIR"
        },
        "Create a Diversion - Trick: Deception": {
            "name": "Crear una distracción - Truco: Enga",
            "description": "NO TRADUCIR"
        },
        "Create a Diversion - Distracting Words: Deception": {
            "name": "Elaborar una distracción - Palabras de distracción: Enga",
            "description": "NO TRADUCIR"
        },
        "Maneuver in Flight: Acrobatics": {
            "name": "Maniobra en vuelo: Acrobacia",
            "description": "NO TRADUCIR"
        },
        "High Jump: Athletics": {
            "name": "Salto de altura: Atletismo",
            "description": "NO TRADUCIR"
        },
        "Sense Motive: Perception": {
            "name": "Sense Motive: Percepción",
            "description": "NO TRADUCIR"
        },
        "Steel Your Resolve": {
            "name": "Steel Your Resolución",
            "description": "NO TRADUCIR"
        },
        "Climb: Athletics": {
            "name": "Trepar: Atletismo",
            "description": "NO TRADUCIR"
        },
        "Track: Survival": {
            "name": "Rastrear: Supervivencia",
            "description": "NO TRADUCIR"
        },
        "Trip: Athletics": {
            "name": "Derribar: Atletismo",
            "description": "NO TRADUCIR"
        },
        "Repair: Crafting": {
            "name": "Reparar: Elaborar Artesanía",
            "description": "NO TRADUCIR"
        },
        "Perform - Oratory: Performance": {
            "name": "Interpretar - Oratoria: Interpretar",
            "description": "NO TRADUCIR"
        },
        "Athletics: Arcane Slam": {
            "name": "Atletismo: Golpe Arcano",
            "description": "NO TRADUCIR"
        },
        "Swim: Athletics": {
            "name": "Nadar: Atletismo",
            "description": "NO TRADUCIR"
        },
        "Sneak: Stealth": {
            "name": "Movimiento furtivo: Stealth",
            "description": "NO TRADUCIR"
        },
        "Seek: Perception": {
            "name": "Buscar: Percepción",
            "description": "NO TRADUCIR"
        },
        "Treat Disease: Medicine": {
            "name": "Tratar enfermedad: Medicina",
            "description": "NO TRADUCIR"
        },
        "Exploration: Avoid Notice": {
            "name": "Exploración: Evitar ser visto",
            "description": "NO TRADUCIR"
        },
        "Subsist: Society": {
            "name": "Subsistir: Sociedad",
            "description": "NO TRADUCIR"
        },
        "Whirling Throw: Athletics": {
            "name": "Lanzamiento giratorio: Atletismo",
            "description": "NO TRADUCIR"
        },
        "Decipher Writing: Arcana": {
            "name": "Descifrar escritura: Arcanos",
            "description": "NO TRADUCIR"
        },
        "Disable Device: Thievery": {
            "name": "Inutilizar mecanismo: Latrocinio",
            "description": "NO TRADUCIR"
        },
        "Squeeze: Acrobatics": {
            "name": "Escurrirse: Acróbata",
            "description": "NO TRADUCIR"
        },
        "Disarm: Athletics": {
            "name": "Desarmar: Atletismo",
            "description": "NO TRADUCIR"
        },
        "Raise a Shield": {
            "name": "Alzar un escudo",
            "description": "NO TRADUCIR"
        },
        "Feint: Deception": {
            "name": "Fintar: Enga",
            "description": "NO TRADUCIR"
        },
        "Force Open: Athletics": {
            "name": "Abrir por la fuerza: Atletismo",
            "description": "NO TRADUCIR"
        },
        "Demoralize: Intimidation": {
            "name": "Desmoralizar: Intimidación",
            "description": "NO TRADUCIR"
        },
        "Decipher Writing: Occultism": {
            "name": "Descifrar escritura: Ocultismo",
            "description": "NO TRADUCIR"
        },
        "Hide: Stealth": {
            "name": "Esconderse: Stealth",
            "description": "NO TRADUCIR"
        },
        "Tumble Through: Acrobatics": {
            "name": "Pasar haciendo acrobacias: Acróbata",
            "description": "NO TRADUCIR"
        },
        "Create a Diversion - Gesture: Deception": {
            "name": "Crear una distracción - Gesto: Enga",
            "description": "NO TRADUCIR"
        },
        "Perform - Singing: Performance": {
            "name": "Interpretar - Cantar: Interpretar",
            "description": "NO TRADUCIR"
        },
        "Grapple: Athletics": {
            "name": "Presa: Atletismo",
            "description": "NO TRADUCIR"
        }
    },
    "mapping": {}
}