{
    "label": "Dotes (Compañeros Animales)",
    "reference": [],
    "entries": {
        "Specialized - Deep Diver (Speed Bonus)": {
            "name": "Specialized - Deep Diver (Speed Bonus) (Especializado - Buceador profundo (Bonificación de Velocidad))",
            "description": "<p>Los Comparos animales especializados son más inteligentes y tienen comportamientos más complejos. La primera vez que un animal obtiene una especialización, obtiene lo siguiente: Su rango de competencia para ataques sin armas aumenta a experto. Su nivel de competencia en tiradas de salvación y Percepción aumenta a maestro. Aumenta su modificador de Destreza en 1 y su modificador de Inteligencia en 2. Su daño de ataque sin armas aumenta de dos dados a tres dados, y aumenta su daño adicional con ataques sin armas de 2 a 4 o de 3 a 6.</p> <p><strong>Percepción</strong>.\n<p>Tu compañero gana una Velocidad de nadar de 30 pies o una bonificación de situación de +10 pies a su Velocidad de nadar existente y puede respirar bajo el agua si aún no podía. Su modificador de Constitución aumenta en 1. Su rango de competencia para Atletismo aumenta a maestro y para barding aumenta a experto. Esta especialización sólo puede ser seleccionada por los compañeros tocados por el marid.</p> <p>"
        },
        "Specialized - Racer": {
            "name": "Specialized - Racer (Especializado - Racer)",
            "description": "<p>Los compañeros animales especializados son más inteligentes y tienen comportamientos más complejos. La primera vez que un animal obtiene una especialización, obtiene lo siguiente: Su rango de competencia para ataques sin armas aumenta a experto. Su nivel de competencia en tiradas de salvación y Percepción aumenta a maestro. Aumenta su modificador de Destreza en 1 y su modificador de Inteligencia en 2. Su daño de ataque sin armas aumenta de dos dados a tres dados, y aumenta su daño adicional con ataques sin armas de 2 a 4 o de 3 a 6.</p> <p><strong>Percepción</strong>.\n<p>Tu compañero de raza. Obtiene un bonificador de situación de +10 pies a su Velocidad, Velocidad de nadar o Velocidad de volar (a elegir). Su competencia en salvaciones de Fortaleza aumenta a legendaria, y su modificador de Constitución aumenta en 1.</p> <p>"
        },
        "Specialized - Wildfire Scorcher": {
            "name": "Specialized - Wildfire Scorcher (Especializado - Wildfire Scorcher)",
            "description": "<p>Los compañeros animales especializados son más inteligentes y tienen comportamientos más complejos. La primera vez que un animal obtiene una especialización, obtiene lo siguiente: Su rango de competencia para ataques sin armas aumenta a experto. Su nivel de competencia en tiradas de salvación y Percepción aumenta a maestro. Aumenta su modificador de Destreza en 1 y su modificador de Inteligencia en 2. Su daño de ataque sin armas aumenta de dos dados a tres dados, y aumenta su daño adicional con ataques sin armas de 2 a 4 o de 3 a 6.</p> <p><strong>Tu compañero gana una especialización</strong>.\n<p>Tu compañero gana resistencia al fuego igual a tu nivel. Cualquier criatura que haga un intento de Presa o Agarre a tu compañero, golpee a tu compañero con un ataque cuerpo a cuerpo sin armas o golpee a tu compañero con un Golpe de arma cuerpo a cuerpo mientras esté adyacente a tu compañero recibe 2d6 puntos de daño por fuego. Su modificador de Destreza aumenta en 1 y su rango de competencia aumenta a legendario para las salvaciones de Reflejos y a experto para la defensa sin armadura. Esta especialización sólo puede ser seleccionada por compañeros tocados por efreeti.</p> <p>"
        },
        "Unseen Animal Companion": {
            "name": "Unseen Animal Companion (Unseen Animal Companion)",
            "description": "<p>Los compañeros animales críptidos tienen un aspecto un tanto peculiar, a menudo con rasgos extraños o que parecen proceder de un animal diferente. Si tomas una proeza que normalmente te permitiría elegir que tu compañero se convirtiera en un compañero animal salvaje o ágil, puedes elegir que sea un compañero animal oculto en su lugar. Un compañero invisible aumenta su modificador de Sabiduría en 2 y sus modificadores de Fuerza, Destreza y Constitución en 1. Inflige 3 puntos de daño adicionales con sus ataques desarmados e inflige 1d4 puntos de daño de precisión adicionales contra objetivos @Compendium[pf2e.conditionitems.Flat-Footed]{Flat-Footed}# (si el compañero animal ya inflige daño de precisión, como un gato, combina el daño de precisión). Aumenta su nivel de competencia en Sigilo a experto. También aprende la Maniobra avanzada de su tipo."
        },
        "Specialized - Wind Chaser": {
            "name": "Specialized - Wind Chaser (Especializado - Cazador de Viento)",
            "description": "<p>Los animales de compañía especializados son más inteligentes y tienen comportamientos más complejos. La primera vez que un animal obtiene una especialización, obtiene lo siguiente: Su rango de competencia para ataques sin armas aumenta a experto. Su nivel de competencia en tiradas de salvación y Percepción aumenta a maestro. Aumenta su modificador de Destreza en 1 y su modificador de Inteligencia en 2. Su daño de ataque sin armas aumenta de dos dados a tres dados, y aumenta su daño adicional con ataques sin armas de 2 a 4 o de 3 a 6.</p> <p>\n<p>Tu compañero gana un bonificador de situación de +20 pies a su Velocidad o a su Velocidad de vuelo (a tu elección si tiene ambas). Su competencia en Acrobacias aumenta a maestro y su modificador de Destreza aumenta en 1. Su rango de competencia aumenta a legendario para las salvaciones de Reflejos y a experto para la defensa sin armadura. Esta especialización sólo puede ser seleccionada por los compañeros tocados por djinni.</p> <p>"
        },
        "Specialized - Wrecker": {
            "name": "Specialized - Wrecker (Especializado - Wrecker)",
            "description": "<p>Los compañeros animales especializados son más inteligentes y tienen comportamientos más complejos. La primera vez que un animal obtiene una especialización, gana lo siguiente: Su rango de competencia para ataques sin armas aumenta a experto. Su nivel de competencia en tiradas de salvación y Percepción aumenta a maestro. Aumenta su modificador de Destreza en 1 y su modificador de Inteligencia en 2. Su daño de ataque sin armas aumenta de dos dados a tres dados, y aumenta su daño adicional con ataques sin armas de 2 a 4 o de 3 a 6.</p> <p><strong>Percepción</strong>.\n<p>Tu compañero destroza cosas. Sus ataques sin armas ignoran la mitad de la Dureza de un objeto. Su pericia en Atletismo aumenta a maestro, y su modificador de Fuerza aumenta en 1.</p> <p>"
        },
        "Efreeti-Touched Animal Companion": {
            "name": "Efreeti-Touched Animal Companion (Efreeti-Touched Animal Companion)",
            "description": "<p>Si tomas una proeza que normalmente te permitiría elegir tener un compañero animal salvaje o ágil, puedes elegir en su lugar que se convierta en un compañero tocado por un genio. Cuando elijas la proeza, selecciona el tipo de genio cuyo poder infunde a tu compañero. Los genios y sus rasgos elementales son los siguientes: djinni (aire), efreeti (fuego), marid (agua) o shaitan (tierra). Un compañero tocado por un genio aumenta su modificador de Sabiduría en 2 y sus modificadores de Fuerza, Destreza y Constitución en 1. Inflige 3 puntos de daño adicionales con sus ataques sin armas; este daño es de fuego para un compañero tocado por un efreeti o del mismo tipo que el ataque sin armas para los demás. Obtiene una resistencia de 5 al daño de un tipo que depende del genio: ácido para los djinni, fuego para los efreeti o marid, y electricidad para los shaitan. Si el compañero está tocado por djinni o efreeti, aumenta su rango de competencia en Acrobacia a experto; si está tocado por marid o shaitan, aumenta su rango de competencia en Atletismo a experto. También aprende la Maniobra avanzada de su tipo. Sus ataques cuentan como mágicos a efectos de ignorar resistencias y ganan el rasgo elemental del genio."
        },
        "Marid-Touched Animal Companion": {
            "name": "Marid-Touched Animal Companion (Marid-Touched Animal Companion)",
            "description": "<p>Si tomas una proeza que normalmente te permitiría elegir tener un compañero animal salvaje o ágil, puedes elegir en su lugar que se convierta en un compañero tocado por un genio. Cuando elijas la proeza, selecciona el tipo de genio cuyo poder infunde a tu compañero. Los genios y sus rasgos elementales son los siguientes: djinni (aire), efreeti (fuego), marid (agua) o shaitan (tierra). Un compañero tocado por un genio aumenta su modificador de Sabiduría en 2 y sus modificadores de Fuerza, Destreza y Constitución en 1. Inflige 3 puntos de daño adicionales con sus ataques sin armas; este daño es de fuego para un compañero tocado por un efreeti o del mismo tipo que el ataque sin armas para los demás. Obtiene una resistencia de 5 al daño de un tipo que depende del genio: ácido para los djinni, fuego para los efreeti o marid, y electricidad para los shaitan. Si el compañero está tocado por djinni o efreeti, aumenta su rango de competencia en Acrobacia a experto; si está tocado por marid o shaitan, aumenta su rango de competencia en Atletismo a experto. También aprende la Maniobra avanzada de su tipo. Sus ataques cuentan como mágicos a efectos de ignorar resistencias y ganan el rasgo elemental del genio."
        },
        "Savage Animal Companion": {
            "name": "Savage Animal Companion (Compañero Salvajismo Animal)",
            "description": "<p>Para convertir a un Comparo animal maduro en un Comparo animal salvaje, aumenta su modificador de Fuerza en 2 y sus modificadores de Destreza, Constitución y Sabiduría en 1. Inflige 3 puntos de daño adicionales con sus ataques sin armas. Aumenta su nivel de competencia en Atletismo a experto. También aprende la Maniobra avanzada para su tipo. Si tu compañero es mediano o más pequeño, crece una talla. Sus ataques se vuelven mágicos a efectos de ignorar resistencias.</p> <p>"
        },
        "Djinni-Touched Animal Companion": {
            "name": "Djinni-Touched Animal Companion (Compañero Animal Tocado por Djinni)",
            "description": "<p>Si tomas una proeza que normalmente te permitiría elegir tener un compañero animal salvaje o ágil, puedes elegir en su lugar que se convierta en un compañero tocado por un genio. Cuando elijas la proeza, selecciona el tipo de genio cuyo poder infunde a tu compañero. Los genios y sus rasgos elementales son los siguientes: djinni (aire), efreeti (fuego), marid (agua) o shaitan (tierra). Un compañero tocado por un genio aumenta su modificador de Sabiduría en 2 y sus modificadores de Fuerza, Destreza y Constitución en 1. Inflige 3 puntos de daño adicionales con sus ataques sin armas; este daño es de fuego para un compañero tocado por un efreeti o del mismo tipo que el ataque sin armas para los demás. Obtiene una resistencia de 5 al daño de un tipo que depende del genio: ácido para los djinni, fuego para los efreeti o marid, y electricidad para los shaitan. Si el compañero está tocado por djinni o efreeti, aumenta su rango de competencia en Acrobacia a experto; si está tocado por marid o shaitan, aumenta su rango de competencia en Atletismo a experto. También aprende la Maniobra avanzada de su tipo. Sus ataques cuentan como mágicos a efectos de ignorar resistencias y ganan el rasgo elemental del genio."
        },
        "Shaitan-Touched Animal Companion": {
            "name": "Shaitan-Touched Animal Companion (Compañero Animal Tocado por Shaitan)",
            "description": "<p>Si tomas una proeza que normalmente te permitiría elegir tener un compañero animal salvaje o ágil, puedes elegir en su lugar que se convierta en un compañero tocado por un genio. Cuando elijas la proeza, selecciona el tipo de genio cuyo poder infunde a tu compañero. Los genios y sus rasgos elementales son los siguientes: djinni (aire), efreeti (fuego), marid (agua) o shaitan (tierra). Un compañero tocado por un genio aumenta su modificador de Sabiduría en 2 y sus modificadores de Fuerza, Destreza y Constitución en 1. Inflige 3 puntos de daño adicionales con sus ataques sin armas; este daño es de fuego para un compañero tocado por un efreeti o del mismo tipo que el ataque sin armas para los demás. Obtiene una resistencia de 5 al daño de un tipo que depende del genio: ácido para los djinni, fuego para los efreeti o marid, y electricidad para los shaitan. Si el compañero está tocado por djinni o efreeti, aumenta su rango de competencia en Acrobacia a experto; si está tocado por marid o shaitan, aumenta su rango de competencia en Atletismo a experto. También aprende la Maniobra avanzada de su tipo. Sus ataques cuentan como mágicos a efectos de ignorar resistencias y ganan el rasgo elemental del genio."
        },
        "Mature Animal Companion": {
            "name": "Mature Animal Companion (Comparo animal maduro)",
            "description": "<p>Para convertir a un joven Comparo animal en un Comparo animal maduro (normalmente como resultado de una de tus elecciones de proeza de clase), aumenta sus modificadores de Fuerza, Destreza, Constitución y Sabiduría en 1. Aumenta el daño de su ataque sin armas de un dado a dos dados (por ejemplo de 1d8 a 2d8), y su rango de competencia en Percepción y todas las tiradas de salvación a experto. Aumenta sus rangos de competencia en Intimidación, Sigilo y Supervivencia a entrenado, y si ya estaba entrenado en una de esas habilidades de su tipo, aumenta su rango de competencia en esa habilidad a experto. Si tu compañero es Mediano o más pequeño, crece un tamaño.</p> <p>"
        },
        "Specialized - Tracker": {
            "name": "Specialized - Tracker (Especializado - Rastreador)",
            "description": "<p>Los animales de compañía especializados son más inteligentes y tienen comportamientos más complejos. La primera vez que un animal obtiene una especialización, obtiene lo siguiente: Su rango de competencia para ataques sin armas aumenta a experto. Su nivel de competencia en tiradas de salvación y Percepción aumenta a maestro. Aumenta su modificador de Destreza en 1 y su modificador de Inteligencia en 2. Su daño de ataque sin armas aumenta de dos dados a tres dados, y aumenta su daño adicional con ataques sin armas de 2 a 4 o de 3 a 6.</p> <p><strong>Percepción</strong>.\n<p>Tu compañero es un rastreador increíble. Puede moverse a toda Velocidad mientras sigue Rastreos. Su rango de competencia en Supervivencia aumenta a experto (o maestro si ya era experto por su tipo), y su modificador de Sabiduría aumenta en 1.</p> <p>"
        },
        "Indomitable Animal Companion": {
            "name": "Indomitable Animal Companion (Compañero Animal Indomable)",
            "description": "<p>Un compañero indomable aumenta su modificador de Constitución en 2 y sus modificadores de Fuerza, Destreza y Sabiduría en 1. Inflige 3 de daño adicional con sus ataques sin armas. Aumenta su nivel de competencia en Atletismo a experto y su nivel de competencia en barding a experto. También aprende la Maniobra avanzada de su tipo. Si tu compañero es mediano o más pequeño, aumenta su tamaño en una categoría. Sus ataques cuentan como mágicos a efectos de ignorar resistencias."
        },
        "Specialized - Shade": {
            "name": "Specialized - Shade (Especializado - Sombra)",
            "description": "<p>Los compañeros animales especializados son más inteligentes y tienen comportamientos más complejos. La primera vez que un animal obtiene una especialización, gana lo siguiente: Su rango de competencia para ataques sin armas aumenta a experto. Su nivel de competencia en tiradas de salvación y Percepción aumenta a maestro. Aumenta su modificador de Destreza en 1 y su modificador de Inteligencia en 2. Su daño de ataque sin armas aumenta de dos dados a tres dados, y aumenta su daño adicional con ataques sin armas de 2 a 4 o de 3 a 6.</p> <p><strong>Percepción</strong>.\n<p>La forma física de su compañero está hecha, total o parcialmente, de Sombra. Gana visión en la oscuridad, resistencia 5 a todo el daño excepto a la fuerza y, en zonas de poca luz u oscuridad, puede dar un Paso de 3 metros en lugar de 5. Su nivel de competencia en defensa sin armadura aumenta a experto."
        },
        "Specialized - Deep Diver (Base Speed)": {
            "name": "Specialized - Deep Diver (Base Speed) (Especializado - Buceador profundo (Velocidad base))",
            "description": "<p>Los Comparos animales especializados son más inteligentes y tienen comportamientos más complejos. La primera vez que un animal obtiene una especialización, obtiene lo siguiente: Su rango de competencia para ataques sin armas aumenta a experto. Su nivel de competencia en tiradas de salvación y Percepción aumenta a maestro. Aumenta su modificador de Destreza en 1 y su modificador de Inteligencia en 2. Su daño de ataque sin armas aumenta de dos dados a tres dados, y aumenta su daño adicional con ataques sin armas de 2 a 4 o de 3 a 6.</p> <p><strong>Percepción</strong>.\n<p>Tu compañero gana una Velocidad de nadar de 30 pies o una bonificación de situación de +10 pies a su Velocidad de nadar existente y puede respirar bajo el agua si aún no podía. Su modificador de Constitución aumenta en 1. Su rango de competencia para Atletismo aumenta a maestro y para barding aumenta a experto. Esta especialización sólo puede ser seleccionada por los compañeros tocados por el marid.</p> <p>"
        },
        "Specialized - Bully": {
            "name": "Specialized - Bully (Especialización - Matón)",
            "description": "<p>Los animales de compañía especializados son más inteligentes y tienen comportamientos más complejos. La primera vez que un animal obtiene una especialización, gana lo siguiente: Su rango de competencia para ataques sin armas aumenta a experto. Su nivel de competencia en tiradas de salvación y Percepción aumenta a maestro. Aumenta su modificador de Destreza en 1 y su modificador de Inteligencia en 2. Su daño de ataque sin armas aumenta de dos dados a tres dados, y aumenta su daño adicional con ataques sin armas de 2 a 4 o de 3 a 6.</p> <p><strong>Percepción</strong>.\n<p>Tu compañero aterroriza a los enemigos con muestras de dominio y los empuja por el campo de batalla. Sus rangos de competencia en Atletismo e Intimidación aumentan a experto (o maestro si ya era experto por su tipo), su modificador de Fuerza aumenta en 1 y su modificador de Carisma aumenta en 3.</p> <p>"
        },
        "Specialized - Daredevil": {
            "name": "Specialized - Daredevil (Especializado - Daredevil)",
            "description": "<p>Los compañeros animales especializados son más inteligentes y tienen comportamientos más complejos. La primera vez que un animal obtiene una especialización, gana lo siguiente: Su rango de competencia para ataques sin armas aumenta a experto. Su nivel de competencia en tiradas de salvación y Percepción aumenta a maestro. Aumenta su modificador de Destreza en 1 y su modificador de Inteligencia en 2. Su daño de ataque sin armas aumenta de dos dados a tres dados, y aumenta su daño adicional con ataques sin armas de 2 a 4 o de 3 a 6.</p> <p><strong>Percepción</strong>.\n<p>Tu compañero se une a la refriega con elegantes saltos y zambullidas. Obtiene la habilidad de denegar ventaja, por lo que no se encuentra en posición de pies planos ante criaturas escondidas, no detectadas/a o que le flanqueen, a menos que el nivel de dicha criatura sea mayor que el tuyo. Su nivel de competencia en acrobacias aumenta a maestro, y su modificador de Destreza aumenta en 1. Su nivel de competencia en defensa sin armadura aumenta a experto.</p> <p>Su nivel de competencia en defensa sin armadura aumenta a experto."
        },
        "Specialized - Ambusher": {
            "name": "Specialized - Ambusher (Especializado - Emboscar)",
            "description": "<p>Los compañeros animales especializados son más inteligentes y tienen comportamientos más complejos. La primera vez que un animal obtiene una especialización, obtiene lo siguiente: Su rango de competencia para ataques sin armas aumenta a experto. Su nivel de competencia en tiradas de salvación y Percepción aumenta a maestro. Aumenta su modificador de Destreza en 1 y su modificador de Inteligencia en 2. Su daño de ataque sin armas aumenta de dos dados a tres dados, y aumenta su daño adicional con ataques sin armas de 2 a 4 o de 3 a 6.</p> <p>\n<p>En el entorno natural de tu compañero, puede usar una acción de Movimiento furtivo incluso si está siendo observado. Su rango de competencia en Sigilo aumenta a experto (o a maestro si ya era experto por su tipo), y su modificador de Destreza aumenta en 1. Su rango de competencia en defensa sin armadura aumenta a experto.</p> <p>"
        },
        "Nimble Animal Companion": {
            "name": "Nimble Animal Companion (Compañero Animal Ágil)",
            "description": "<p>Para convertir a un Comparo animal maduro en un Comparo animal ágil, aumenta su modificador de Destreza en 2 y sus modificadores de Fuerza, Constitución y Sabiduría en 1. Inflige 2 puntos de daño adicionales con sus ataques sin armas. Aumenta sus rangos de competencia en Acróbata a experto. También aprende la Maniobra avanzada para su tipo. Sus ataques se vuelven mágicos a efectos de ignorar resistencias.</p> <p>"
        },
        "Specialized - Steadfast Strider": {
            "name": "Specialized - Steadfast Strider (Especializado - Steadfast Strider)",
            "description": "<p>Los compañeros animales especializados son más inteligentes y tienen comportamientos más complejos. La primera vez que un animal obtiene una especialización, obtiene lo siguiente: Su rango de competencia para ataques sin armas aumenta a experto. Su nivel de competencia en tiradas de salvación y Percepción aumenta a maestro. Aumenta su modificador de Destreza en 1 y su modificador de Inteligencia en 2. Su daño de ataque sin armas aumenta de dos dados a tres dados, y aumenta su daño adicional con ataques sin armas de 2 a 4 o de 3 a 6.</p> <p>\n<p>Tu compañero ignora el terreno difícil natural y el terreno difícil mayor de sedimento o piedra y puede moverse por arenas movedizas, barro y superficies similares como si fueran sólidas. Obtiene un bonificador de situación de +2 a las tiradas de salvación y CC para evitar ser Empujado o Derribado. Su modificador de Fuerza aumenta en 1 y su pericia con los bardos se convierte en experta. Esta especialización sólo puede ser seleccionada por compañeros tocados por el shaitán.</p> <p>"
        }
    },
    "mapping": {
        "description": "system.description.value"
    }
}